<?xml version="1.0" encoding="UTF-8" standalone="no"?>
<svg
   xmlns:dc="http://purl.org/dc/elements/1.1/"
   xmlns:cc="http://creativecommons.org/ns#"
   xmlns:rdf="http://www.w3.org/1999/02/22-rdf-syntax-ns#"
   xmlns:svg="http://www.w3.org/2000/svg"
   xmlns="http://www.w3.org/2000/svg"
   xmlns:sodipodi="http://sodipodi.sourceforge.net/DTD/sodipodi-0.dtd"
   xmlns:inkscape="http://www.inkscape.org/namespaces/inkscape"
   version="1.0"
   width="800"
   viewBox="0 0 1042 338"
   id="svg579"
   sodipodi:docname="ports_3.svg"
   inkscape:version="0.92.2 (5c3e80d, 2017-08-06)">
  <metadata
     id="metadata583">
    <rdf:RDF>
      <cc:Work
         rdf:about="">
        <dc:format>image/svg+xml</dc:format>
        <dc:type
           rdf:resource="http://purl.org/dc/dcmitype/StillImage" />
        <dc:title></dc:title>
      </cc:Work>
    </rdf:RDF>
  </metadata>
  <sodipodi:namedview
     pagecolor="#ffffff"
     bordercolor="#666666"
     borderopacity="1"
     objecttolerance="10"
     gridtolerance="10"
     guidetolerance="10"
     inkscape:pageopacity="0"
     inkscape:pageshadow="2"
     inkscape:window-width="1680"
     inkscape:window-height="1028"
     id="namedview581"
     showgrid="false"
     fit-margin-top="0"
     fit-margin-left="0"
     fit-margin-right="0"
     fit-margin-bottom="0"
     inkscape:zoom="0.26472315"
     inkscape:cx="535.67333"
     inkscape:cy="175.83637"
     inkscape:window-x="-8"
     inkscape:window-y="-8"
     inkscape:window-maximized="1"
     inkscape:current-layer="svg579" />
  <defs
     id="defs345">
    <pattern
       id="EMFhbasepattern"
       patternUnits="userSpaceOnUse"
       width="6"
       height="6"
       x="0"
       y="0" />
  </defs>
  <path
     style="fill:none;stroke:#7f7f7f;stroke-width:2.65475559px;stroke-linecap:butt;stroke-linejoin:miter;stroke-miterlimit:8;stroke-dasharray:none;stroke-opacity:1"
     d="m 127.09135,28.77316 c 0,-15.150072 12.29571,-27.4457822 27.44578,-27.4457822 h 234.87602 c 15.15007,0 27.44578,12.2957102 27.44578,27.4457822 v 109.78312 c 0,15.17003 -12.29571,27.44578 -27.44578,27.44578 H 154.53713 c -15.15007,0 -27.44578,-12.27575 -27.44578,-27.44578 z"
     id="path347"
     inkscape:connector-curvature="0" />
  <path
     style="fill:#ffffff;fill-opacity:1;fill-rule:evenodd;stroke:none"
     d="m 115.77371,56.717956 c 0,-6.247658 5.06998,-11.317642 11.31764,-11.317642 6.24766,0 11.30766,5.069984 11.30766,11.317642 0,6.247658 -5.06,11.307662 -11.30766,11.307662 -6.24766,0 -11.31764,-5.060004 -11.31764,-11.307662 z"
     id="path349"
     inkscape:connector-curvature="0" />
  <path
     style="fill:none;stroke:#ed7d31;stroke-width:2.66473603px;stroke-linecap:butt;stroke-linejoin:miter;stroke-miterlimit:8;stroke-dasharray:none;stroke-opacity:1"
     d="m 115.77371,56.717956 c 0,-6.247658 5.06998,-11.317642 11.31764,-11.317642 6.24766,0 11.30766,5.069984 11.30766,11.317642 0,6.247658 -5.06,11.307662 -11.30766,11.307662 -6.24766,0 -11.31764,-5.060004 -11.31764,-11.307662"
     id="path351"
     inkscape:connector-curvature="0" />
  <path
     style="fill:#ffffff;fill-opacity:1;fill-rule:evenodd;stroke:none"
     d="m 405.54129,94.982365 c 0,-6.247657 5.06998,-11.317641 11.31764,-11.317641 6.24766,0 11.29768,5.069984 11.29768,11.317641 0,6.247655 -5.05002,11.297675 -11.29768,11.297675 -6.24766,0 -11.31764,-5.05002 -11.31764,-11.297675 z"
     id="path353"
     inkscape:connector-curvature="0" />
  <path
     style="fill:none;stroke:#92d050;stroke-width:2.65475559px;stroke-linecap:butt;stroke-linejoin:miter;stroke-miterlimit:8;stroke-dasharray:none;stroke-opacity:1"
     d="m 405.54129,94.982365 c 0,-6.247657 5.06998,-11.317641 11.31764,-11.317641 6.24766,0 11.29768,5.069984 11.29768,11.317641 0,6.247655 -5.05002,11.297675 -11.29768,11.297675 -6.24766,0 -11.31764,-5.05002 -11.31764,-11.297675"
     id="path355"
     inkscape:connector-curvature="0" />
  <path
     style="fill:#ed7d31;fill-opacity:1;fill-rule:nonzero;stroke:#ed7d31;stroke-width:0.00998028px;stroke-linecap:butt;stroke-linejoin:round;stroke-miterlimit:10;stroke-dasharray:none;stroke-opacity:1"
     d="M 59.225417,56.049277 H 109.1468 v 2.664736 H 59.225417 Z m 48.594003,-2.664736 7.98423,3.992114 -7.98423,3.992114 z"
     id="path357"
     inkscape:connector-curvature="0" />
  <text
     xml:space="preserve"
     style="font-style:normal;font-variant:normal;font-weight:400;font-size:37.1875px;line-height:125%;font-family:Calibri;text-align:start;letter-spacing:0px;word-spacing:0px;text-anchor:start;fill:#000000;fill-opacity:1;stroke:none"
     x="163.0208"
     y="117.81773"
     id="text363"><tspan
       sodipodi:role="line"
       x="163.0208"
       y="117.81773"
       id="tspan361"><tspan
         dx="0"
         dy="0"
         style="font-style:normal;font-variant:normal;font-weight:400;font-size:37.1875px;font-family:Calibri;fill:#7f7f7f"
         id="tspan359">demo1</tspan></tspan></text>
  <text
     xml:space="preserve"
     style="font-style:italic;font-variant:normal;font-weight:400;font-size:23.9375px;line-height:125%;font-family:Calibri;text-align:start;letter-spacing:0px;word-spacing:0px;text-anchor:start;fill:#000000;fill-opacity:1;stroke:none"
     x="163.0208"
     y="150.07401"
     id="text369"><tspan
       sodipodi:role="line"
       x="163.0208"
       y="150.07401"
       id="tspan367"><tspan
         dx="0"
         dy="0"
         style="font-style:italic;font-variant:normal;font-weight:400;font-size:23.9375px;font-family:Calibri;fill:#7f7f7f"
         id="tspan365">c</tspan></tspan></text>
  <text
     xml:space="preserve"
     style="font-style:italic;font-variant:normal;font-weight:400;font-size:23.9375px;line-height:125%;font-family:Calibri;text-align:start;letter-spacing:0px;word-spacing:0px;text-anchor:start;fill:#000000;fill-opacity:1;stroke:none"
     x="172.92125"
     y="150.07401"
     id="text375"><tspan
       sodipodi:role="line"
       x="172.92125"
       y="150.07401"
       id="tspan373"><tspan
         dx="0"
         dy="0"
         style="font-style:italic;font-variant:normal;font-weight:400;font-size:23.9375px;font-family:Calibri;fill:#7f7f7f"
         id="tspan371">lass: </tspan></tspan></text>
  <text
     xml:space="preserve"
     style="font-style:italic;font-variant:normal;font-weight:400;font-size:23.9375px;line-height:125%;font-family:Calibri;text-align:start;letter-spacing:0px;word-spacing:0px;text-anchor:start;fill:#000000;fill-opacity:1;stroke:none"
     x="221.46535"
     y="150.07401"
     id="text381"><tspan
       sodipodi:role="line"
       x="221.46535"
       y="150.07401"
       id="tspan379"><tspan
         dx="0"
         dy="0"
         style="font-style:italic;font-variant:normal;font-weight:400;font-size:23.9375px;font-family:Calibri;fill:#7f7f7f"
         id="tspan377">DemoSystem</tspan></tspan></text>
  <text
     xml:space="preserve"
     style="font-style:normal;font-variant:normal;font-weight:400;font-size:23.9375px;line-height:125%;font-family:Calibri;text-align:start;letter-spacing:0px;word-spacing:0px;text-anchor:start;fill:#000000;fill-opacity:1;stroke:none"
     x="-0.69348145"
     y="95.218285"
     id="text387"><tspan
       sodipodi:role="line"
       x="-0.69348145"
       y="95.218285"
       id="tspan385"><tspan
         dx="0"
         dy="0"
         style="font-style:normal;font-variant:normal;font-weight:400;font-size:23.9375px;font-family:Calibri;fill:#ed7d31"
         id="tspan383">p</tspan></tspan></text>
  <text
     xml:space="preserve"
     style="font-style:normal;font-variant:normal;font-weight:400;font-size:23.9375px;line-height:125%;font-family:Calibri;text-align:start;letter-spacing:0px;word-spacing:0px;text-anchor:start;fill:#000000;fill-opacity:1;stroke:none"
     x="11.921598"
     y="95.218285"
     id="text393"><tspan
       sodipodi:role="line"
       x="11.921598"
       y="95.218285"
       id="tspan391"><tspan
         dx="0"
         dy="0"
         style="font-style:normal;font-variant:normal;font-weight:400;font-size:23.9375px;font-family:Calibri;fill:#ed7d31"
         id="tspan389">_in</tspan></tspan></text>
  <text
     xml:space="preserve"
     style="font-style:normal;font-variant:normal;font-weight:400;font-size:23.9375px;line-height:125%;font-family:Calibri;text-align:start;letter-spacing:0px;word-spacing:0px;text-anchor:start;fill:#000000;fill-opacity:1;stroke:none"
     x="47.531254"
     y="95.218285"
     id="text399"><tspan
       sodipodi:role="line"
       x="47.531254"
       y="95.218285"
       id="tspan397"><tspan
         dx="0"
         dy="0"
         style="font-style:normal;font-variant:normal;font-weight:400;font-size:23.9375px;font-family:Calibri;fill:#ed7d31"
         id="tspan395">{a, b, c}</tspan></tspan></text>
  <text
     xml:space="preserve"
     style="font-style:italic;font-variant:normal;font-weight:400;font-size:18.6875px;line-height:125%;font-family:Calibri;text-align:start;letter-spacing:0px;word-spacing:0px;text-anchor:start;fill:#000000;fill-opacity:1;stroke:none"
     x="-0.69348145"
     y="119.01128"
     id="text405"><tspan
       sodipodi:role="line"
       x="-0.69348145"
       y="119.01128"
       id="tspan403"><tspan
         dx="0"
         dy="0"
         style="font-style:italic;font-variant:normal;font-weight:400;font-size:18.6875px;font-family:Calibri;fill:#ed7d31"
         id="tspan401">c</tspan></tspan></text>
  <text
     xml:space="preserve"
     style="font-style:italic;font-variant:normal;font-weight:400;font-size:18.6875px;line-height:125%;font-family:Calibri;text-align:start;letter-spacing:0px;word-spacing:0px;text-anchor:start;fill:#000000;fill-opacity:1;stroke:none"
     x="7.1310616"
     y="119.01128"
     id="text411"><tspan
       sodipodi:role="line"
       x="7.1310616"
       y="119.01128"
       id="tspan409"><tspan
         dx="0"
         dy="0"
         style="font-style:italic;font-variant:normal;font-weight:400;font-size:18.6875px;font-family:Calibri;fill:#ed7d31"
         id="tspan407">lass: </tspan></tspan></text>
  <text
     xml:space="preserve"
     style="font-style:italic;font-variant:normal;font-weight:400;font-size:18.6875px;line-height:125%;font-family:Calibri;text-align:start;letter-spacing:0px;word-spacing:0px;text-anchor:start;fill:#000000;fill-opacity:1;stroke:none"
     x="44.816616"
     y="119.01128"
     id="text417"><tspan
       sodipodi:role="line"
       x="44.816616"
       y="119.01128"
       id="tspan415"><tspan
         dx="0"
         dy="0"
         style="font-style:italic;font-variant:normal;font-weight:400;font-size:18.6875px;font-family:Calibri;fill:#ed7d31"
         id="tspan413">DemoPort</tspan></tspan></text>
  <text
     xml:space="preserve"
     style="font-style:normal;font-variant:normal;font-weight:400;font-size:23.9375px;line-height:125%;font-family:Calibri;text-align:start;letter-spacing:0px;word-spacing:0px;text-anchor:start;fill:#000000;fill-opacity:1;stroke:none"
     x="441.34467"
     y="49.620686"
     id="text423"><tspan
       sodipodi:role="line"
       x="441.34467"
       y="49.620686"
       id="tspan421"><tspan
         dx="0"
         dy="0"
         style="font-style:normal;font-variant:normal;font-weight:400;font-size:23.9375px;font-family:Calibri;fill:#92d050"
         id="tspan419">p</tspan></tspan></text>
  <text
     xml:space="preserve"
     style="font-style:normal;font-variant:normal;font-weight:400;font-size:23.9375px;line-height:125%;font-family:Calibri;text-align:start;letter-spacing:0px;word-spacing:0px;text-anchor:start;fill:#000000;fill-opacity:1;stroke:none"
     x="453.95975"
     y="49.620686"
     id="text429"><tspan
       sodipodi:role="line"
       x="453.95975"
       y="49.620686"
       id="tspan427"><tspan
         dx="0"
         dy="0"
         style="font-style:normal;font-variant:normal;font-weight:400;font-size:23.9375px;font-family:Calibri;fill:#92d050"
         id="tspan425">_out</tspan></tspan></text>
  <text
     xml:space="preserve"
     style="font-style:normal;font-variant:normal;font-weight:400;font-size:23.9375px;line-height:125%;font-family:Calibri;text-align:start;letter-spacing:0px;word-spacing:0px;text-anchor:start;fill:#000000;fill-opacity:1;stroke:none"
     x="504.73941"
     y="49.620686"
     id="text435"><tspan
       sodipodi:role="line"
       x="504.73941"
       y="49.620686"
       id="tspan433"><tspan
         dx="0"
         dy="0"
         style="font-style:normal;font-variant:normal;font-weight:400;font-size:23.9375px;font-family:Calibri;fill:#92d050"
         id="tspan431">{a, b, c}</tspan></tspan></text>
  <text
     xml:space="preserve"
     style="font-style:italic;font-variant:normal;font-weight:400;font-size:18.6875px;line-height:125%;font-family:Calibri;text-align:start;letter-spacing:0px;word-spacing:0px;text-anchor:start;fill:#000000;fill-opacity:1;stroke:none"
     x="441.34467"
     y="73.413681"
     id="text441"><tspan
       sodipodi:role="line"
       x="441.34467"
       y="73.413681"
       id="tspan439"><tspan
         dx="0"
         dy="0"
         style="font-style:italic;font-variant:normal;font-weight:400;font-size:18.6875px;font-family:Calibri;fill:#92d050"
         id="tspan437">class: </tspan></tspan></text>
  <text
     xml:space="preserve"
     style="font-style:italic;font-variant:normal;font-weight:400;font-size:18.6875px;line-height:125%;font-family:Calibri;text-align:start;letter-spacing:0px;word-spacing:0px;text-anchor:start;fill:#000000;fill-opacity:1;stroke:none"
     x="486.85477"
     y="73.413681"
     id="text447"><tspan
       sodipodi:role="line"
       x="486.85477"
       y="73.413681"
       id="tspan445"><tspan
         dx="0"
         dy="0"
         style="font-style:italic;font-variant:normal;font-weight:400;font-size:18.6875px;font-family:Calibri;fill:#92d050"
         id="tspan443">DemoPort</tspan></tspan></text>
  <path
     style="fill:none;stroke:#7f7f7f;stroke-width:2.67471623px;stroke-linecap:butt;stroke-linejoin:miter;stroke-miterlimit:8;stroke-dasharray:none;stroke-opacity:1"
     d="m 596.16472,198.99688 c 0,-15.20995 12.29571,-27.50566 27.50566,-27.50566 h 234.77621 c 15.20995,0 27.50566,12.29571 27.50566,27.50566 v 109.86297 c 0,15.17004 -12.29571,27.46575 -27.50566,27.46575 H 623.67038 c -15.20995,0 -27.50566,-12.29571 -27.50566,-27.46575 z"
     id="path449"
     inkscape:connector-curvature="0" />
  <path
     style="fill:#ffffff;fill-opacity:1;fill-rule:evenodd;stroke:none"
     d="m 584.86703,226.90176 c 0,-6.26762 5.06999,-11.3376 11.29769,-11.3376 6.26761,0 11.3376,5.06998 11.3376,11.3376 0,6.2277 -5.06999,11.29768 -11.3376,11.29768 -6.2277,0 -11.29769,-5.06998 -11.29769,-11.29768 z"
     id="path451"
     inkscape:connector-curvature="0" />
  <path
     style="fill:none;stroke:#ed7d31;stroke-width:2.67471623px;stroke-linecap:butt;stroke-linejoin:miter;stroke-miterlimit:8;stroke-dasharray:none;stroke-opacity:1"
     d="m 584.86703,226.90176 c 0,-6.26762 5.06999,-11.3376 11.29769,-11.3376 6.26761,0 11.3376,5.06998 11.3376,11.3376 0,6.2277 -5.06999,11.29768 -11.3376,11.29768 -6.2277,0 -11.29769,-5.06998 -11.29769,-11.29768"
     id="path453"
     inkscape:connector-curvature="0" />
  <path
     style="fill:#ffffff;fill-opacity:1;fill-rule:evenodd;stroke:none"
     d="m 874.61465,265.30589 c 0,-6.22769 5.06998,-11.29768 11.3376,-11.29768 6.2277,0 11.29768,5.06999 11.29768,11.29768 0,6.26762 -5.06998,11.33761 -11.29768,11.33761 -6.26762,0 -11.3376,-5.06999 -11.3376,-11.33761 z"
     id="path455"
     inkscape:connector-curvature="0" />
  <path
     style="fill:none;stroke:#92d050;stroke-width:2.67471623px;stroke-linecap:butt;stroke-linejoin:miter;stroke-miterlimit:8;stroke-dasharray:none;stroke-opacity:1"
     d="m 874.61465,265.30589 c 0,-6.22769 5.06998,-11.29768 11.3376,-11.29768 6.2277,0 11.29768,5.06999 11.29768,11.29768 0,6.26762 -5.06998,11.33761 -11.29768,11.33761 -6.26762,0 -11.3376,-5.06999 -11.3376,-11.33761"
     id="path457"
     inkscape:connector-curvature="0" />
  <path
     style="fill:#92d050;fill-opacity:1;fill-rule:nonzero;stroke:#92d050;stroke-width:0.03992114px;stroke-linecap:butt;stroke-linejoin:round;stroke-miterlimit:10;stroke-dasharray:none;stroke-opacity:1"
     d="m 897.24993,263.9885 h 49.94135 v 2.67471 h -49.94135 z m 48.58403,-2.67472 7.98423,3.99211 -7.98423,3.99212 z"
     id="path459"
     inkscape:connector-curvature="0" />
  <text
     xml:space="preserve"
     style="font-style:normal;font-variant:normal;font-weight:400;font-size:37.1875px;line-height:125%;font-family:Calibri;text-align:start;letter-spacing:0px;word-spacing:0px;text-anchor:start;fill:#000000;fill-opacity:1;stroke:none"
     x="632.09412"
     y="288.08884"
     id="text465"><tspan
       sodipodi:role="line"
       x="632.09412"
       y="288.08884"
       id="tspan463"><tspan
         dx="0"
         dy="0"
         style="font-style:normal;font-variant:normal;font-weight:400;font-size:37.1875px;font-family:Calibri;fill:#7f7f7f"
         id="tspan461">demo2</tspan></tspan></text>
  <text
     xml:space="preserve"
     style="font-style:italic;font-variant:normal;font-weight:400;font-size:23.9375px;line-height:125%;font-family:Calibri;text-align:start;letter-spacing:0px;word-spacing:0px;text-anchor:start;fill:#000000;fill-opacity:1;stroke:none"
     x="632.09412"
     y="320.34509"
     id="text471"><tspan
       sodipodi:role="line"
       x="632.09412"
       y="320.34509"
       id="tspan469"><tspan
         dx="0"
         dy="0"
         style="font-style:italic;font-variant:normal;font-weight:400;font-size:23.9375px;font-family:Calibri;fill:#7f7f7f"
         id="tspan467">c</tspan></tspan></text>
  <text
     xml:space="preserve"
     style="font-style:italic;font-variant:normal;font-weight:400;font-size:23.9375px;line-height:125%;font-family:Calibri;text-align:start;letter-spacing:0px;word-spacing:0px;text-anchor:start;fill:#000000;fill-opacity:1;stroke:none"
     x="641.99457"
     y="320.34509"
     id="text477"><tspan
       sodipodi:role="line"
       x="641.99457"
       y="320.34509"
       id="tspan475"><tspan
         dx="0"
         dy="0"
         style="font-style:italic;font-variant:normal;font-weight:400;font-size:23.9375px;font-family:Calibri;fill:#7f7f7f"
         id="tspan473">lass: </tspan></tspan></text>
  <text
     xml:space="preserve"
     style="font-style:italic;font-variant:normal;font-weight:400;font-size:23.9375px;line-height:125%;font-family:Calibri;text-align:start;letter-spacing:0px;word-spacing:0px;text-anchor:start;fill:#000000;fill-opacity:1;stroke:none"
     x="690.5387"
     y="320.34509"
     id="text483"><tspan
       sodipodi:role="line"
       x="690.5387"
       y="320.34509"
       id="tspan481"><tspan
         dx="0"
         dy="0"
         style="font-style:italic;font-variant:normal;font-weight:400;font-size:23.9375px;font-family:Calibri;fill:#7f7f7f"
         id="tspan479">DemoSystem</tspan></tspan></text>
  <text
     xml:space="preserve"
     style="font-style:normal;font-variant:normal;font-weight:400;font-size:23.9375px;line-height:125%;font-family:Calibri;text-align:start;letter-spacing:0px;word-spacing:0px;text-anchor:start;fill:#000000;fill-opacity:1;stroke:none"
     x="468.37988"
     y="265.48938"
     id="text489"><tspan
       sodipodi:role="line"
       x="468.37988"
       y="265.48938"
       id="tspan487"><tspan
         dx="0"
         dy="0"
         style="font-style:normal;font-variant:normal;font-weight:400;font-size:23.9375px;font-family:Calibri;fill:#ed7d31"
         id="tspan485">p</tspan></tspan></text>
  <text
     xml:space="preserve"
     style="font-style:normal;font-variant:normal;font-weight:400;font-size:23.9375px;line-height:125%;font-family:Calibri;text-align:start;letter-spacing:0px;word-spacing:0px;text-anchor:start;fill:#000000;fill-opacity:1;stroke:none"
     x="480.99496"
     y="265.48938"
     id="text495"><tspan
       sodipodi:role="line"
       x="480.99496"
       y="265.48938"
       id="tspan493"><tspan
         dx="0"
         dy="0"
         style="font-style:normal;font-variant:normal;font-weight:400;font-size:23.9375px;font-family:Calibri;fill:#ed7d31"
         id="tspan491">_in</tspan></tspan></text>
  <text
     xml:space="preserve"
     style="font-style:normal;font-variant:normal;font-weight:400;font-size:23.9375px;line-height:125%;font-family:Calibri;text-align:start;letter-spacing:0px;word-spacing:0px;text-anchor:start;fill:#000000;fill-opacity:1;stroke:none"
     x="516.60461"
     y="265.48938"
     id="text501"><tspan
       sodipodi:role="line"
       x="516.60461"
       y="265.48938"
       id="tspan499"><tspan
         dx="0"
         dy="0"
         style="font-style:normal;font-variant:normal;font-weight:400;font-size:23.9375px;font-family:Calibri;fill:#ed7d31"
         id="tspan497">{a, b, c}</tspan></tspan></text>
  <text
     xml:space="preserve"
     style="font-style:italic;font-variant:normal;font-weight:400;font-size:18.6875px;line-height:125%;font-family:Calibri;text-align:start;letter-spacing:0px;word-spacing:0px;text-anchor:start;fill:#000000;fill-opacity:1;stroke:none"
     x="468.37988"
     y="289.28238"
     id="text507"><tspan
       sodipodi:role="line"
       x="468.37988"
       y="289.28238"
       id="tspan505"><tspan
         dx="0"
         dy="0"
         style="font-style:italic;font-variant:normal;font-weight:400;font-size:18.6875px;font-family:Calibri;fill:#ed7d31"
         id="tspan503">c</tspan></tspan></text>
  <text
     xml:space="preserve"
     style="font-style:italic;font-variant:normal;font-weight:400;font-size:18.6875px;line-height:125%;font-family:Calibri;text-align:start;letter-spacing:0px;word-spacing:0px;text-anchor:start;fill:#000000;fill-opacity:1;stroke:none"
     x="476.20444"
     y="289.28238"
     id="text513"><tspan
       sodipodi:role="line"
       x="476.20444"
       y="289.28238"
       id="tspan511"><tspan
         dx="0"
         dy="0"
         style="font-style:italic;font-variant:normal;font-weight:400;font-size:18.6875px;font-family:Calibri;fill:#ed7d31"
         id="tspan509">lass: </tspan></tspan></text>
  <text
     xml:space="preserve"
     style="font-style:italic;font-variant:normal;font-weight:400;font-size:18.6875px;line-height:125%;font-family:Calibri;text-align:start;letter-spacing:0px;word-spacing:0px;text-anchor:start;fill:#000000;fill-opacity:1;stroke:none"
     x="513.88995"
     y="289.28238"
     id="text519"><tspan
       sodipodi:role="line"
       x="513.88995"
       y="289.28238"
       id="tspan517"><tspan
         dx="0"
         dy="0"
         style="font-style:italic;font-variant:normal;font-weight:400;font-size:18.6875px;font-family:Calibri;fill:#ed7d31"
         id="tspan515">DemoPort</tspan></tspan></text>
  <text
     xml:space="preserve"
     style="font-style:normal;font-variant:normal;font-weight:400;font-size:23.9375px;line-height:125%;font-family:Calibri;text-align:start;letter-spacing:0px;word-spacing:0px;text-anchor:start;fill:#000000;fill-opacity:1;stroke:none"
     x="906.93768"
     y="303.79691"
     id="text525"><tspan
       sodipodi:role="line"
       x="906.93768"
       y="303.79691"
       id="tspan523"><tspan
         dx="0"
         dy="0"
         style="font-style:normal;font-variant:normal;font-weight:400;font-size:23.9375px;font-family:Calibri;fill:#92d050"
         id="tspan521">p</tspan></tspan></text>
  <text
     xml:space="preserve"
     style="font-style:normal;font-variant:normal;font-weight:400;font-size:23.9375px;line-height:125%;font-family:Calibri;text-align:start;letter-spacing:0px;word-spacing:0px;text-anchor:start;fill:#000000;fill-opacity:1;stroke:none"
     x="919.55273"
     y="303.79691"
     id="text531"><tspan
       sodipodi:role="line"
       x="919.55273"
       y="303.79691"
       id="tspan529"><tspan
         dx="0"
         dy="0"
         style="font-style:normal;font-variant:normal;font-weight:400;font-size:23.9375px;font-family:Calibri;fill:#92d050"
         id="tspan527">_out</tspan></tspan></text>
  <text
     xml:space="preserve"
     style="font-style:normal;font-variant:normal;font-weight:400;font-size:23.9375px;line-height:125%;font-family:Calibri;text-align:start;letter-spacing:0px;word-spacing:0px;text-anchor:start;fill:#000000;fill-opacity:1;stroke:none"
     x="970.33246"
     y="303.79691"
     id="text537"><tspan
       sodipodi:role="line"
       x="970.33246"
       y="303.79691"
       id="tspan535"><tspan
         dx="0"
         dy="0"
         style="font-style:normal;font-variant:normal;font-weight:400;font-size:23.9375px;font-family:Calibri;fill:#92d050"
         id="tspan533">{a, b, c}</tspan></tspan></text>
  <text
     xml:space="preserve"
     style="font-style:italic;font-variant:normal;font-weight:400;font-size:18.6875px;line-height:125%;font-family:Calibri;text-align:start;letter-spacing:0px;word-spacing:0px;text-anchor:start;fill:#000000;fill-opacity:1;stroke:none"
     x="906.93768"
     y="327.5899"
     id="text543"><tspan
       sodipodi:role="line"
       x="906.93768"
       y="327.5899"
       id="tspan541"><tspan
         dx="0"
         dy="0"
         style="font-style:italic;font-variant:normal;font-weight:400;font-size:18.6875px;font-family:Calibri;fill:#92d050"
         id="tspan539">class: </tspan></tspan></text>
  <text
     xml:space="preserve"
     style="font-style:italic;font-variant:normal;font-weight:400;font-size:18.6875px;line-height:125%;font-family:Calibri;text-align:start;letter-spacing:0px;word-spacing:0px;text-anchor:start;fill:#000000;fill-opacity:1;stroke:none"
     x="952.44775"
     y="327.5899"
     id="text549"><tspan
       sodipodi:role="line"
       x="952.44775"
       y="327.5899"
       id="tspan547"><tspan
         dx="0"
         dy="0"
         style="font-style:italic;font-variant:normal;font-weight:400;font-size:18.6875px;font-family:Calibri;fill:#92d050"
         id="tspan545">DemoPort</tspan></tspan></text>
  <path
     style="fill:#ed7d31;fill-opacity:1;fill-rule:nonzero;stroke:#ed7d31;stroke-width:0.03992114px;stroke-linecap:butt;stroke-linejoin:round;stroke-miterlimit:4;stroke-dasharray:none;stroke-opacity:1"
     d="m 503.34807,172.16988 v 56.88762 h 74.65253 v -2.67472 h -73.29521 l 1.3174,1.35732 v -55.57022 z m 73.29521,59.56234 7.98423,-3.99212 -7.98423,-3.99211 z"
     id="path551"
     inkscape:connector-curvature="0" />
  <path
     style="fill:#92d050;fill-opacity:1;fill-rule:nonzero;stroke:#92d050;stroke-width:0.01996057px;stroke-linecap:butt;stroke-linejoin:round;stroke-miterlimit:4;stroke-dasharray:none;stroke-opacity:1"
     d="m 429.49397,93.804695 h 76.50886 v 56.548285 h -2.65476 V 95.142055 l 1.33736,1.33735 h -75.19146 z m 79.18357,55.210925 -3.99211,7.98423 -3.99211,-7.98423 z"
     id="path553"
     inkscape:connector-curvature="0" />
  <path
     style="fill:#ffffff;fill-opacity:1;fill-rule:evenodd;stroke:none"
     d="m 497.02057,164.58486 7.58502,-7.56505 7.56505,7.56505 -7.56505,7.56506 z"
     id="path555"
     inkscape:connector-curvature="0" />
  <path
     style="fill:none;stroke:#7f7f7f;stroke-width:2.65475559px;stroke-linecap:butt;stroke-linejoin:miter;stroke-miterlimit:8;stroke-dasharray:none;stroke-opacity:1"
     d="m 497.02057,164.58486 7.58502,-7.56505 7.56505,7.56505 -7.56505,7.56506 z"
     id="path557"
     inkscape:connector-curvature="0" />
  <text
     xml:space="preserve"
     style="font-style:italic;font-variant:normal;font-weight:400;font-size:18.6875px;line-height:125%;font-family:Calibri;text-align:start;letter-spacing:0px;word-spacing:0px;text-anchor:start;fill:#000000;fill-opacity:1;stroke:none"
     x="575.28052"
     y="139.4399"
     id="text563"><tspan
       sodipodi:role="line"
       x="575.28052"
       y="139.4399"
       id="tspan561"><tspan
         dx="0"
         dy="0"
         style="font-style:italic;font-variant:normal;font-weight:400;font-size:18.6875px;font-family:Calibri;fill:#7f7f7f"
         id="tspan559">class</tspan></tspan></text>
  <text
     xml:space="preserve"
     style="font-style:italic;font-variant:normal;font-weight:400;font-size:18.6875px;line-height:125%;font-family:Calibri;text-align:start;letter-spacing:0px;word-spacing:0px;text-anchor:start;fill:#000000;fill-opacity:1;stroke:none"
     x="611.6886"
     y="139.4399"
     id="text569"><tspan
       sodipodi:role="line"
       x="611.6886"
       y="139.4399"
       id="tspan567"><tspan
         dx="0"
         dy="0"
         style="font-style:italic;font-variant:normal;font-weight:400;font-size:18.6875px;font-family:Calibri;fill:#7f7f7f"
         id="tspan565">: </tspan></tspan></text>
  <text
     xml:space="preserve"
     style="font-style:italic;font-variant:normal;font-weight:400;font-size:18.6875px;line-height:125%;font-family:Calibri;text-align:start;letter-spacing:0px;word-spacing:0px;text-anchor:start;fill:#000000;fill-opacity:1;stroke:none"
     x="620.79059"
     y="139.4399"
     id="text575"><tspan
       sodipodi:role="line"
       x="620.79059"
       y="139.4399"
       id="tspan573"><tspan
         dx="0"
         dy="0"
         style="font-style:italic;font-variant:normal;font-weight:400;font-size:18.6875px;font-family:Calibri;fill:#7f7f7f"
         id="tspan571">Connector</tspan></tspan></text>
  <path
     style="fill:#7f7f7f;fill-opacity:1;fill-rule:nonzero;stroke:#7f7f7f;stroke-width:0.03992114px;stroke-linecap:butt;stroke-linejoin:round;stroke-miterlimit:4;stroke-dasharray:none;stroke-opacity:1"
     d="m 567.70095,136.12109 -5.74865,0.63874 v 0 l -2.87432,0.35929 v 0 l -2.8344,0.39921 h 0.0399 l -2.8344,0.47906 h 0.0399 l -2.79448,0.55889 h 0.0399 l -2.75456,0.67866 0.0399,-0.0399 -2.67471,0.79842 h 0.0399 l -2.67472,0.91819 h 0.0399 l -2.67471,1.07787 0.0399,-0.0399 -2.67472,1.19763 v 0 l -2.59487,1.27748 v -0.0399 l -2.51503,1.3174 h 0.0399 l -2.39527,1.35731 v -0.0399 l -2.19566,1.3174 v 0 l -0.99803,0.63874 v 0 l -0.99803,0.59882 v 0 l -0.87826,0.59881 h 0.0399 l -0.83835,0.59882 v -0.0399 l -0.71858,0.59882 v -0.0399 l -0.67866,0.59881 0.0399,-0.0399 -1.23755,1.15771 h 0.0399 l -1.517,1.55693 -0.95811,-0.95811 1.517,-1.55692 1.23756,-1.15772 0.71858,-0.59881 0.7585,-0.59882 0.83834,-0.59882 0.91819,-0.63874 0.99803,-0.59881 1.03795,-0.67866 2.23558,-1.27748 2.39527,-1.35732 2.51503,-1.31739 2.6348,-1.27748 2.67471,-1.19763 2.71464,-1.07788 2.71464,-0.9581 2.67471,-0.79843 2.75456,-0.67865 2.79448,-0.5589 2.8344,-0.47905 2.87433,-0.39922 2.87432,-0.35929 5.78856,-0.63873 z m -44.35239,19.80089 -8.46328,2.91424 2.75456,-8.5032 z"
     id="path577"
     inkscape:connector-curvature="0" />
</svg>
